{
  "formatVersion": 1,
  "database": {
    "version": 3,
    "identityHash": "0977f99ae0491c536d8fbd1e24317443",
    "entities": [
      {
        "tableName": "character_table",
        "createSql": "CREATE TABLE IF NOT EXISTS `${TABLE_NAME}` (`characterId` INTEGER PRIMARY KEY AUTOINCREMENT NOT NULL, `name` TEXT, `description` TEXT)",
        "fields": [
          {
            "fieldPath": "characterId",
            "columnName": "characterId",
            "affinity": "INTEGER",
            "notNull": true
          },
          {
            "fieldPath": "name",
            "columnName": "name",
            "affinity": "TEXT",
            "notNull": false
          },
          {
            "fieldPath": "description",
            "columnName": "description",
            "affinity": "TEXT",
            "notNull": false
          }
        ],
        "primaryKey": {
          "columnNames": [
            "characterId"
          ],
          "autoGenerate": true
        },
        "indices": [],
        "foreignKeys": []
      }
    ],
    "views": [],
    "setupQueries": [
      "CREATE TABLE IF NOT EXISTS room_master_table (id INTEGER PRIMARY KEY,identity_hash TEXT)",
      "INSERT OR REPLACE INTO room_master_table (id,identity_hash) VALUES(42, '0977f99ae0491c536d8fbd1e24317443')"
    ]
  }
}