{
  "formatVersion": 1,
  "database": {
    "version": 1,
    "identityHash": "be61b8e51c7d93ff1edaca9821af6b22",
    "entities": [
      {
        "tableName": "character_table",
        "createSql": "CREATE TABLE IF NOT EXISTS `${TABLE_NAME}` (`characterId` INTEGER PRIMARY KEY AUTOINCREMENT NOT NULL, `name` TEXT, `color` TEXT)",
        "fields": [
          {
            "fieldPath": "characterId",
            "columnName": "characterId",
            "affinity": "INTEGER",
            "notNull": true
          },
          {
            "fieldPath": "name",
            "columnName": "name",
            "affinity": "TEXT",
            "notNull": false
          },
          {
            "fieldPath": "color",
            "columnName": "color",
            "affinity": "TEXT",
            "notNull": false
          }
        ],
        "primaryKey": {
          "columnNames": [
            "characterId"
          ],
          "autoGenerate": true
        },
        "indices": [],
        "foreignKeys": []
      }
    ],
    "views": [],
    "setupQueries": [
      "CREATE TABLE IF NOT EXISTS room_master_table (id INTEGER PRIMARY KEY,identity_hash TEXT)",
      "INSERT OR REPLACE INTO room_master_table (id,identity_hash) VALUES(42, 'be61b8e51c7d93ff1edaca9821af6b22')"
    ]
  }
}